<?xml version="1.0" encoding="UTF-8" standalone="no"?>
<!-- Created with Inkscape (http://www.inkscape.org/) -->

<svg
   xmlns:osb="http://www.openswatchbook.org/uri/2009/osb"
   xmlns:dc="http://purl.org/dc/elements/1.1/"
   xmlns:cc="http://creativecommons.org/ns#"
   xmlns:rdf="http://www.w3.org/1999/02/22-rdf-syntax-ns#"
   xmlns:svg="http://www.w3.org/2000/svg"
   xmlns="http://www.w3.org/2000/svg"
   xmlns:sodipodi="http://sodipodi.sourceforge.net/DTD/sodipodi-0.dtd"
   xmlns:inkscape="http://www.inkscape.org/namespaces/inkscape"
   width="169.06306mm"
   height="66.062881mm"
   viewBox="0 0 169.06306 66.062881"
   version="1.1"
   id="svg8"
   inkscape:version="0.92.4 5da689c313, 2019-01-14"
   sodipodi:docname="Two Fragments (English).svg">
  <defs
     id="defs2">
    <marker
       inkscape:stockid="Arrow1Lstart"
       orient="auto"
       refY="0"
       refX="0"
       id="Arrow1Lstart"
       style="overflow:visible"
       inkscape:isstock="true">
      <path
         id="path4528"
         d="M 0,0 5,-5 -12.5,0 5,5 Z"
         style="fill-rule:evenodd;stroke:#000000;stroke-width:1.00000003pt"
         transform="matrix(0.8,0,0,0.8,10,0)"
         inkscape:connector-curvature="0" />
    </marker>
    <linearGradient
       id="linearGradient4522"
       osb:paint="solid">
      <stop
         style="stop-color:#000000;stop-opacity:1;"
         offset="0"
         id="stop4520" />
    </linearGradient>
  </defs>
  <sodipodi:namedview
     id="base"
     pagecolor="#ffffff"
     bordercolor="#666666"
     borderopacity="1.0"
     inkscape:pageopacity="0.0"
     inkscape:pageshadow="2"
     inkscape:zoom="1.4"
     inkscape:cx="325.78009"
     inkscape:cy="211.46786"
     inkscape:document-units="mm"
     inkscape:current-layer="layer1"
     showgrid="false"
     inkscape:window-width="1652"
     inkscape:window-height="1390"
     inkscape:window-x="894"
     inkscape:window-y="36"
     inkscape:window-maximized="1"
     fit-margin-top="0"
     fit-margin-left="0"
     fit-margin-right="0"
     fit-margin-bottom="0" />
  <metadata
     id="metadata5">
    <rdf:RDF>
      <cc:Work
         rdf:about="">
        <dc:format>image/svg+xml</dc:format>
        <dc:type
           rdf:resource="http://purl.org/dc/dcmitype/StillImage" />
        <dc:title></dc:title>
      </cc:Work>
    </rdf:RDF>
  </metadata>
  <g
     inkscape:label="Layer 1"
     inkscape:groupmode="layer"
     id="layer1"
     transform="translate(-9.924491,-74.130021)">
    <rect
       style="fill:#f2f2f2;fill-opacity:1;stroke:#000000;stroke-width:0.33754975;stroke-miterlimit:4;stroke-dasharray:none;stroke-opacity:1"
       id="rect5105-0"
       width="55.747822"
       height="65.725327"
       x="123.07095"
       y="74.298798"
       ry="2.6509826" />
    <text
       xml:space="preserve"
       style="font-style:normal;font-weight:normal;font-size:10.58333302px;line-height:1.25;font-family:sans-serif;letter-spacing:0px;word-spacing:0px;fill:#000000;fill-opacity:1;stroke:none;stroke-width:0.26458332"
       x="145.13431"
       y="84.759918"
       id="text5137-0"><tspan
         sodipodi:role="line"
         id="tspan5135-7"
         x="145.13431"
         y="84.759918"
         style="font-style:normal;font-variant:normal;font-weight:normal;font-stretch:normal;font-family:'DejaVu Math TeX Gyre';-inkscape-font-specification:'DejaVu Math TeX Gyre';stroke-width:0.26458332">F<tspan
   style="font-size:64.99999762%;baseline-shift:sub"
   id="tspan5165">2</tspan></tspan></text>
    <rect
       style="fill:#f2f2f2;fill-opacity:1;stroke:#000000;stroke-width:0.4651773;stroke-miterlimit:4;stroke-dasharray:none;stroke-opacity:1"
       id="rect5105"
       width="106.08002"
       height="65.597694"
       x="10.15708"
       y="74.36261"
       ry="2.6458347" />
    <rect
       style="fill:#e6e6e6;fill-opacity:1;stroke:#000000;stroke-width:1;stroke-miterlimit:4;stroke-dasharray:none;stroke-opacity:1"
       id="rect4842"
       width="50.760281"
       height="47.438011"
       x="12.436809"
       y="89.907806" />
    <rect
       style="fill:#cccccc;fill-opacity:1;stroke:#000000;stroke-width:1;stroke-miterlimit:4;stroke-dasharray:none;stroke-opacity:1"
       id="rect4844"
       width="50.459812"
       height="16.819939"
       x="12.587041"
       y="90.058037" />
    <text
       xml:space="preserve"
       style="font-style:normal;font-weight:normal;font-size:10.58333302px;line-height:1.25;font-family:sans-serif;letter-spacing:0px;word-spacing:0px;fill:#000000;fill-opacity:1;stroke:none;stroke-width:0.26458332"
       x="25.282312"
       y="101.55412"
       id="text4848"><tspan
         sodipodi:role="line"
         id="tspan4846"
         x="25.282312"
         y="101.55412"
         style="font-size:8.46666622px;stroke-width:0.26458332">NAME</tspan></text>
    <text
       xml:space="preserve"
       style="font-style:normal;font-weight:normal;font-size:10.58333302px;line-height:1.25;font-family:sans-serif;letter-spacing:0px;word-spacing:0px;fill:#000000;fill-opacity:1;stroke:none;stroke-width:0.26458332"
       x="29.256231"
       y="115.12847"
       id="text4852"><tspan
         sodipodi:role="line"
         id="tspan4850"
         x="29.256231"
         y="115.12847"
         style="font-size:7.76111126px;line-height:1.25;stroke-width:0.26458332">Cloe</tspan></text>
    <text
       xml:space="preserve"
       style="font-style:normal;font-weight:normal;font-size:10.58333302px;line-height:1.25;font-family:sans-serif;letter-spacing:0px;word-spacing:0px;fill:#000000;fill-opacity:1;stroke:none;stroke-width:0.26458332"
       x="30.292686"
       y="125.31023"
       id="text4856"><tspan
         sodipodi:role="line"
         id="tspan4854"
         x="30.292686"
         y="125.31023"
         style="font-size:7.76111126px;stroke-width:0.26458332">Tom</tspan></text>
    <text
       xml:space="preserve"
       style="font-style:normal;font-weight:normal;font-size:10.58333302px;line-height:1.25;font-family:sans-serif;letter-spacing:0px;word-spacing:0px;fill:#000000;fill-opacity:1;stroke:none;stroke-width:0.26458332"
       x="25.398411"
       y="135.09923"
       id="text4860"><tspan
         sodipodi:role="line"
         id="tspan4858"
         x="25.398411"
         y="135.09923"
         style="font-size:7.76111126px;stroke-width:0.26458332">Emma</tspan></text>
    <path
       style="fill:none;stroke:#000000;stroke-width:0.5;stroke-linecap:butt;stroke-linejoin:miter;stroke-miterlimit:4;stroke-dasharray:none;stroke-opacity:1"
       d="M 12.584456,117.62467 H 62.964761"
       id="path4862"
       inkscape:connector-curvature="0" />
    <path
       style="fill:none;stroke:#000000;stroke-width:0.5;stroke-linecap:butt;stroke-linejoin:miter;stroke-miterlimit:4;stroke-dasharray:none;stroke-opacity:1"
       d="M 12.27723,127.34547 H 62.657535"
       id="path4862-3"
       inkscape:connector-curvature="0" />
    <rect
       style="fill:#e6e6e6;fill-opacity:1;stroke:#000000;stroke-width:1;stroke-miterlimit:4;stroke-dasharray:none;stroke-opacity:1"
       id="rect4842-0"
       width="50.760281"
       height="47.438011"
       x="63.197086"
       y="89.907806" />
    <rect
       style="fill:#cccccc;fill-opacity:1;stroke:#000000;stroke-width:1;stroke-miterlimit:4;stroke-dasharray:none;stroke-opacity:1"
       id="rect4844-0"
       width="50.459812"
       height="16.819939"
       x="63.347317"
       y="90.058037" />
    <text
       xml:space="preserve"
       style="font-style:normal;font-weight:normal;font-size:10.58333302px;line-height:1.25;font-family:sans-serif;letter-spacing:0px;word-spacing:0px;fill:#000000;fill-opacity:1;stroke:none;stroke-width:0.26458332"
       x="67.451897"
       y="101.54999"
       id="text4848-4"><tspan
         sodipodi:role="line"
         id="tspan4846-5"
         x="67.451897"
         y="101.54999"
         style="font-size:8.46666622px;stroke-width:0.26458332">SURNAME</tspan></text>
    <text
       xml:space="preserve"
       style="font-style:normal;font-weight:normal;font-size:10.58333302px;line-height:1.25;font-family:sans-serif;letter-spacing:0px;word-spacing:0px;fill:#000000;fill-opacity:1;stroke:none;stroke-width:0.26458332"
       x="71.645271"
       y="114.90541"
       id="text4852-4"><tspan
         sodipodi:role="line"
         id="tspan4850-2"
         x="71.645271"
         y="114.90541"
         style="font-size:7.76111126px;line-height:1.25;stroke-width:0.26458332">Connolly</tspan></text>
    <text
       xml:space="preserve"
       style="font-style:normal;font-weight:normal;font-size:10.58333302px;line-height:1.25;font-family:sans-serif;letter-spacing:0px;word-spacing:0px;fill:#000000;fill-opacity:1;stroke:none;stroke-width:0.26458332"
       x="78.000435"
       y="124.78105"
       id="text4856-4"><tspan
         sodipodi:role="line"
         id="tspan4854-9"
         x="78.000435"
         y="124.78105"
         style="font-size:7.76111126px;stroke-width:0.26458332">Flynn</tspan></text>
    <text
       xml:space="preserve"
       style="font-style:normal;font-weight:normal;font-size:10.58333302px;line-height:1.25;font-family:sans-serif;letter-spacing:0px;word-spacing:0px;fill:#000000;fill-opacity:1;stroke:none;stroke-width:0.26458332"
       x="80.21167"
       y="135.09923"
       id="text4860-9"><tspan
         sodipodi:role="line"
         id="tspan4858-9"
         x="80.21167"
         y="135.09923"
         style="font-size:7.76111126px;stroke-width:0.26458332">Hills</tspan></text>
    <path
       style="fill:none;stroke:#000000;stroke-width:0.5;stroke-linecap:butt;stroke-linejoin:miter;stroke-miterlimit:4;stroke-dasharray:none;stroke-opacity:1"
       d="M 63.344733,117.62467 H 113.72504"
       id="path4862-4"
       inkscape:connector-curvature="0" />
    <path
       style="fill:none;stroke:#000000;stroke-width:0.5;stroke-linecap:butt;stroke-linejoin:miter;stroke-miterlimit:4;stroke-dasharray:none;stroke-opacity:1"
       d="M 63.037507,127.34547 H 113.41781"
       id="path4862-3-9"
       inkscape:connector-curvature="0" />
    <rect
       style="fill:#e6e6e6;fill-opacity:1;stroke:#000000;stroke-width:1;stroke-miterlimit:4;stroke-dasharray:none;stroke-opacity:1"
       id="rect4842-1"
       width="50.760281"
       height="47.438011"
       x="125.56081"
       y="89.907806" />
    <rect
       style="fill:#cccccc;fill-opacity:1;stroke:#000000;stroke-width:1;stroke-miterlimit:4;stroke-dasharray:none;stroke-opacity:1"
       id="rect4844-6"
       width="50.459812"
       height="16.819939"
       x="125.71104"
       y="90.058037" />
    <text
       xml:space="preserve"
       style="font-style:normal;font-weight:normal;font-size:10.58333302px;line-height:1.25;font-family:sans-serif;letter-spacing:0px;word-spacing:0px;fill:#000000;fill-opacity:1;stroke:none;stroke-width:0.26458332"
       x="134.29286"
       y="101.54999"
       id="text4848-3"><tspan
         sodipodi:role="line"
         id="tspan4846-9"
         x="134.29286"
         y="101.54999"
         style="font-size:8.46666622px;stroke-width:0.26458332">PAYOUT</tspan></text>
    <text
       xml:space="preserve"
       style="font-style:normal;font-weight:normal;font-size:10.58333302px;line-height:1.25;font-family:sans-serif;letter-spacing:0px;word-spacing:0px;fill:#000000;fill-opacity:1;stroke:none;stroke-width:0.26458332"
       x="141.02354"
       y="115.65764"
       id="text4852-3"><tspan
         sodipodi:role="line"
         id="tspan4850-3"
         x="141.02354"
         y="115.65764"
         style="font-size:7.76111126px;line-height:1.25;stroke-width:0.26458332">5000</tspan></text>
    <text
       xml:space="preserve"
       style="font-style:normal;font-weight:normal;font-size:10.58333302px;line-height:1.25;font-family:sans-serif;letter-spacing:0px;word-spacing:0px;fill:#000000;fill-opacity:1;stroke:none;stroke-width:0.26458332"
       x="138.42767"
       y="125.31023"
       id="text4856-46"><tspan
         sodipodi:role="line"
         id="tspan4854-1"
         x="138.42767"
         y="125.31023"
         style="font-size:7.76111126px;stroke-width:0.26458332">17500</tspan></text>
    <text
       xml:space="preserve"
       style="font-style:normal;font-weight:normal;font-size:10.58333302px;line-height:1.25;font-family:sans-serif;letter-spacing:0px;word-spacing:0px;fill:#000000;fill-opacity:1;stroke:none;stroke-width:0.26458332"
       x="138.42767"
       y="135.09923"
       id="text4860-5"><tspan
         sodipodi:role="line"
         id="tspan4858-6"
         x="138.42767"
         y="135.09923"
         style="font-size:7.76111126px;stroke-width:0.26458332">12000</tspan></text>
    <path
       style="fill:none;stroke:#000000;stroke-width:0.5;stroke-linecap:butt;stroke-linejoin:miter;stroke-miterlimit:4;stroke-dasharray:none;stroke-opacity:1"
       d="m 125.70845,117.62467 h 50.38031"
       id="path4862-1"
       inkscape:connector-curvature="0" />
    <path
       style="fill:none;stroke:#000000;stroke-width:0.5;stroke-linecap:butt;stroke-linejoin:miter;stroke-miterlimit:4;stroke-dasharray:none;stroke-opacity:1"
       d="m 125.40123,127.34547 h 50.3803"
       id="path4862-3-7"
       inkscape:connector-curvature="0" />
    <text
       xml:space="preserve"
       style="font-style:normal;font-weight:normal;font-size:10.58333302px;line-height:1.25;font-family:sans-serif;letter-spacing:0px;word-spacing:0px;fill:#000000;fill-opacity:1;stroke:none;stroke-width:0.26458332"
       x="57.537865"
       y="84.759918"
       id="text5137"><tspan
         sodipodi:role="line"
         id="tspan5135"
         x="57.537865"
         y="84.759918"
         style="font-style:normal;font-variant:normal;font-weight:normal;font-stretch:normal;font-family:'DejaVu Math TeX Gyre';-inkscape-font-specification:'DejaVu Math TeX Gyre';stroke-width:0.26458332">F<tspan
   style="font-size:64.99999762%;baseline-shift:sub"
   id="tspan5139">1</tspan></tspan></text>
  </g>
</svg>
